%YAML 1.1
%TAG !u! tag:unity3d.com,2011:
--- !u!1045 &1
EditorBuildSettings:
  m_ObjectHideFlags: 0
  serializedVersion: 2
  m_Scenes:
  - enabled: 1
    path: Assets/Scenes/intro.unity
    guid: e4bd30e92f3381344a1150af811b62ed
  - enabled: 1
    path: Assets/Scenes/OneWidthCorridorsLevel.unity
    guid: f5628134bf1459b4288daf7d9ed054c1
  - enabled: 1
    path: Assets/Scenes/skullLevel.unity
    guid: c9008cdc02178364a8d294279582b245
  - enabled: 1
    path: Assets/Scenes/RollercoasterLevel.unity
    guid: e8af5e903ab67f4418726ca50069b84e
  - enabled: 1
    path: Assets/Scenes/crossroadsLevel.unity
    guid: d3c7090ada2f5154690efdb4739ed8db
  - enabled: 1
    path: Assets/Scenes/CarefulLevel.unity
    guid: c870bde7ed3f505419c424cbb67b2bfd
  - enabled: 1
    path: Assets/Scenes/SnakeLevel.unity
    guid: c7c3c5f3a54dfab4cb88d2ffc7ca860e
  m_configObjects: {}
